<?xml version="1.0" encoding="utf-8"?>
<!-- Generator: Adobe Illustrator 21.0.2, SVG Export Plug-In . SVG Version: 6.00 Build 0)  -->
<svg version="1.1" id="Layer_1" xmlns="http://www.w3.org/2000/svg" xmlns:xlink="http://www.w3.org/1999/xlink" x="0px" y="0px"
	 viewBox="0 0 1920 1080" style="enable-background:new 0 0 1920 1080;" xml:space="preserve">
<style type="text/css">
	.st0{fill:none;stroke:#000000;stroke-width:30;stroke-miterlimit:10;}
</style>
<rect x="1003.3" y="59" class="st0" width="459" height="731.8"/>
<rect x="867.6" y="-76.7" transform="matrix(-1.836970e-16 1 -1 -1.836970e-16 1386.3243 -807.8289)" class="st0" width="459" height="731.8"/>
<rect x="612.2" y="404.2" transform="matrix(-1.836970e-16 1 -1 -1.836970e-16 1524.2296 -208.0502)" class="st0" width="507.8" height="507.8"/>
<rect x="1004.8" y="289.6" class="st0" width="229.8" height="731.8"/>
<rect x="755.6" y="38.2" transform="matrix(-1.836970e-16 1 -1 -1.836970e-16 1273.5922 -465.2546)" class="st0" width="227.7" height="731.8"/>
<line class="st0" x1="729.7" y1="521.6" x2="1001.9" y2="793.8"/>
</svg>
